{"page":1,"total_results":23,"total_pages":2,"results":[{"vote_count":0,"id":458769,"video":false,"vote_average":0,"title":"Jonny's Sweet Revenge","popularity":3.508,"poster_path":"\/hcD0C38YTPv3ySQgD4XNKw8OEpd.jpg","original_language":"en","original_title":"Jonny's Sweet Revenge","genre_ids":[35,80],"backdrop_path":"\/tnbijv0Bmcc0x08c2KSCVTG5BoN.jpg","adult":false,"overview":"Rick and Reni came to California in search of a new lease on life. Unfortunately, all they found was each other... In a last ditch effort to save their struggling relationship, the duo twist their couples' counseling therapy into a plot that would see them turning back into their Texas low-life roots as petty criminals. As has been the case throughout the history of Rick and Reni's calamity plagued relationship, their haphazard scheme to hold up a dive bar goes horribly wrong. When a diverse cast of bar patrons gets caught up in their failed plot, Rick and Reni begin to not only wonder if they'll survive the day, but if they can survive one another.","release_date":"2017-04-07"},{"vote_count":2,"id":225762,"video":false,"vote_average":6.3,"title":"Breakfast With Jonny Wilkinson","popularity":0.749,"poster_path":"\/tJlmM0cG6We4TOA4GSs2qK0J7ra.jpg","original_language":"en","original_title":"Breakfast With Jonny Wilkinson","genre_ids":[35],"backdrop_path":"\/eiaasABqG00HbMcxkNyfjTDkFB7.jpg","adult":false,"overview":"Greyhawks Rugby Club is under threat from land developers, and Dave's position as chairman is being challenged by an extremely loud Australian. The faithful few have gathered on the morning before the election to watch England in the Rugby World Cup Final and tensions are running high for more reasons than one Why does Jake, the first team prodigy, leave the room every time Jonny Wilkinson takes a kick?","release_date":"2013-11-22"},{"vote_count":0,"id":436762,"video":false,"vote_average":0,"title":"Vicky & Jonny","popularity":0.377,"poster_path":null,"original_language":"en","original_title":"Vicky & Jonny","genre_ids":[],"backdrop_path":null,"adult":false,"overview":"A young woman's awakening from a dark past that shaped the choices she had made in her life. It is a story about a woman coming to terms with her memories and choosing to take responsibility for her choices.","release_date":"2015-09-11"},{"vote_count":9,"id":343977,"video":false,"vote_average":6.3,"title":"Tom and Jerry Spy Quest","popularity":2.118,"poster_path":"\/bqhOTvwqxH8iTMF1q3bcVY5ntmj.jpg","original_language":"en","original_title":"Tom and Jerry Spy Quest","genre_ids":[35,16,10751],"backdrop_path":"\/2sW4XHnaKgxO0j000cHd4jAsg7n.jpg","adult":false,"overview":"Two groups of classic cartoon characters come together in this fun-filled crossover with the popular action-adventure animated series Jonny Quest. Fans of all ages won't want to miss this heart-stopping adventure as tussling twosome Tom and Jerry join Jonny Quest and his pal Hadji and embark on a dangerous spy mission in order to save the world. It's just another day at the beach for the dueling Tom and Jerry ... until they bump into world-class junior spies Jonny Quest and Hadji and their canine companion, Bandit. When longtime Quest family nemesis Dr. Zin discovers that Jonny's father, Dr. Benton Quest, possesses a device that could solve the world's energy problems, Zin sends his evil cat army to steal it and capture Benton and his bodyguard, Race Bannon. That's when Jonny and his new furry friends spring into action! Get set for intrigue, thrills and suspense for the whole family. Tia Carrere and Tim Matheson lend their voices.","release_date":"2015-06-09"},{"vote_count":1,"id":431955,"video":false,"vote_average":8,"title":"Jonny Comes","popularity":0.239,"poster_path":"\/v6SQ8o4r4xprWAkwwTEpJ7BiJsK.jpg","original_language":"de","original_title":"Jonny kommt","genre_ids":[18,10751],"backdrop_path":"\/3Fu0s0eu7oefkvLfl2HAe4dQp6Z.jpg","adult":false,"overview":"Twelve year old Jonny lives in foster home. Suddenly the family of a local doctor decides to adopt him. But it's not so easy...","release_date":"1988-12-25"},{"vote_count":0,"id":342493,"video":false,"vote_average":0,"title":"Uncle Jonny","popularity":0.286,"poster_path":null,"original_language":"en","original_title":"Uncle Jonny","genre_ids":[18],"backdrop_path":null,"adult":false,"overview":"Uncle Jonny is the best mate of a 7 year old who is daydreaming during class.","release_date":"2008-02-17"},{"vote_count":6,"id":33688,"video":false,"vote_average":5.8,"title":"Jonny Vang","popularity":0.258,"poster_path":"\/aNTBoyiS9IQWvIbJBPeiY8mrgnb.jpg","original_language":"no","original_title":"Jonny Vang","genre_ids":[35],"backdrop_path":"\/46WspGSFaPt9NpzMlCGjQntMi4V.jpg","adult":false,"overview":"Three friends since childhood are trying to work out their complicated relationships. Jonny tries to be best friends with Magnus, Magnus tries to be married to Tuva, and Tuva tries to have sex with Jonny.","release_date":"2003-02-14"},{"vote_count":2,"id":144354,"video":false,"vote_average":8,"title":"My Name Is Pecos","popularity":0.685,"poster_path":"\/wMyYN6q2rQ9f4W8MU4UNDhvt22Y.jpg","original_language":"it","original_title":"Due once di piombo","genre_ids":[37],"backdrop_path":null,"adult":false,"overview":"Pecos Martinez rides into Houston looking to settle an old score with gang leader Clane, who is after the money that disappearred from a recent robbery. The hunt for the loot and Pecos' quest become intertwined with the efforts of the locals to stay alive long enough for help to arrive.  Source: SWDB www.spaghetti-western.net","release_date":"1966-12-22"},{"vote_count":1,"id":334193,"video":false,"vote_average":7,"title":"Gunsmoke in Tucson","popularity":0.332,"poster_path":"\/sGx64WsuC4mYCuSpWdYBJughvwj.jpg","original_language":"en","original_title":"Gunsmoke in Tucson","genre_ids":[37],"backdrop_path":"\/p7NwueeYMUWkOEmfdE0x8L81ygo.jpg","adult":false,"overview":"As young boys, two brothers, Jed (AKA: Chip) and John, witness their father being hung by a vigilante gang. Chip, angry and bitter, grows up to be an outlaw and leader of the feared Blue Chip Gang. John goes the other way and becomes a U.S. Marshal. Two brothers on opposite sides of the law, destined to become embroiled in an Arizona range war between cattlemen and farmers.","release_date":"1958-12-07"},{"vote_count":0,"id":1854,"video":false,"vote_average":0,"title":"...aber Jonny!","popularity":0.074,"poster_path":"\/yae2PuPNlG7HelF1hGaK6k2L5h9.jpg","original_language":"de","original_title":"...aber Jonny!","genre_ids":[35],"backdrop_path":null,"adult":false,"overview":"No overview found.","release_date":"1973-05-01"},{"vote_count":1,"id":373343,"video":false,"vote_average":10,"title":"Jonny Quest","popularity":0.074,"poster_path":null,"original_language":"en","original_title":"Jonny Quest","genre_ids":[12],"backdrop_path":null,"adult":false,"overview":"Young adventurer Jonny Quest joins his scientist father, his adopted Indian brother Hadji, his pet bulldog Bandit, and a government agent assigned to protect them in extraordinary escapades around the world, going on adventures and investigating scientific mysteries. [A live-action feature based on the animated Hanna-Barbera series, \"Jonny Quest\".]","release_date":""},{"vote_count":0,"id":406974,"video":false,"vote_average":0,"title":"Frankie, Jonny & die anderen","popularity":0.038,"poster_path":"\/gECoZtBNPgh3JVRMN8YxI5oNx5T.jpg","original_language":"de","original_title":"Frankie, Jonny & die anderen","genre_ids":[35],"backdrop_path":null,"adult":false,"overview":"","release_date":"1993-01-01"},{"vote_count":1,"id":143926,"video":false,"vote_average":7,"title":"Pecos Cleans Up","popularity":0.064,"poster_path":"\/10Py2U1RgQQIuZdJZXDUS84NEFs.jpg","original_language":"it","original_title":"Pecos è qui: prega e muori","genre_ids":[37],"backdrop_path":null,"adult":false,"overview":"Three musicians arrive in a Mexican village destroyed by El Supremo and learn, from the only survivor, of the lost treasure of Montezuma hidden in an Aztec temple. Along comes Pecos and the search is on.  Source: SWDB www.spaghetti-western.net","release_date":"1967-03-23"},{"vote_count":0,"id":211223,"video":false,"vote_average":0,"title":"Jonny's Golden Quest","popularity":0.041,"poster_path":"\/o3R0tmCgTr6yvLYfglZ5BjWUDU1.jpg","original_language":"en","original_title":"Jonny's Golden Quest","genre_ids":[16,12,10751,9648],"backdrop_path":"\/dsJN4IJJEbUS5FThw0fi61sZJRN.jpg","adult":false,"overview":"In the first feature-length animated movie based on the Hanna-Barbera series, Jonny Quest fans get to meet the women behind the adventurous men. Joining scientist Benton Quest, his plucky son Jonny, bodyguard Race Bannon and Jonny's young pal Hadji are Benton's biologist wife Rachel, Race's ex-wife Jade and young 12-year-old Jessie, who harbors a big secret. Throughout, Team Quest battles the evil schemes of modern-day alchemist Dr. Zin, who has cloned himself and created an army of mutant reptiles in the Peruvian rain forest. The clash there results in a tragedy that changes Jonny's life forever - and later leads to a worldwide pursuit of Zin that includes examining rare Leonardo da Vinci documents in Paris, exploring the Roman catacombs and a final confrontation in the Australian outback.","release_date":"1993-04-04"},{"vote_count":0,"id":382309,"video":false,"vote_average":0,"title":"Jonny Come Lately","popularity":0.016,"poster_path":"\/g7pBMTdQgykdqByBPRDMvKkA5GK.jpg","original_language":"en","original_title":"Jonny Come Lately","genre_ids":[18],"backdrop_path":null,"adult":false,"overview":"A short film about a young woman trying to find a way out of an abusive relationship.","release_date":"2015-01-01"},{"vote_count":0,"id":211231,"video":false,"vote_average":0,"title":"Jonny Quest Vs. The Cyber Insects","popularity":0.015,"poster_path":"\/j6PB2uxZ8nXJFSJqG6rTKai5R4I.jpg","original_language":"en","original_title":"Jonny Quest Vs. The Cyber Insects","genre_ids":[28,12,16],"backdrop_path":"\/8o1bKN3OngHgGxbwS0f202AnA3L.jpg","adult":false,"overview":"The evil Dr. Zin has genetically modified household pests into disturbingly large insects that he calls assassinoids, fearless and devoted warriors that will carry out his plan for world domination. Team Quest, headed by internationally respected scientist Benton Quest, is Earth's only hope. When the good doctor becomes Zin's captive, the stakes - and the action quotient - grow higher. Enter Jonny Quest, Dr. Quest's bright, excitable, imaginative and heroic young son, ex-special agent Race Bannon, Jonny's child genius pals Hadji and Jessie (Race's daughter), their robotic pal 4-DAC and bulldog Bandit to complete the job of vermin extermination before it's too late. Your quest for colorful animated excitement ends here with this high-tech feature-length adventure based on the beloved Hanna-Barbera series.","release_date":"1995-11-19"},{"vote_count":0,"id":377283,"video":false,"vote_average":0,"title":"Ohnsorg Theater - Jonny der Dritte","popularity":0.009,"poster_path":null,"original_language":"de","original_title":"Ohnsorg Theater - Jonny der Dritte","genre_ids":[35],"backdrop_path":null,"adult":false,"overview":"","release_date":"1971-12-05"},{"vote_count":1,"id":205556,"video":false,"vote_average":5,"title":"Fort Defiance","popularity":0.111,"poster_path":"\/bYt0306y2sD0qA2Wo0wOVangzt9.jpg","original_language":"en","original_title":"Fort Defiance","genre_ids":[28,37],"backdrop_path":"\/jrVnuV3aqO8M8uNxVYHvovw464j.jpg","adult":false,"overview":"It's just after the Civil War and Ben Shelby arrives looking for Johnny Tallon whom he plans to kill. Shelby was the only survivor of a battle due to the cowardice of Tallon. Thinking Tallon dead, another man who lost a brother at the same battle arrives to kill Tallon's blind brother. Tallon arrives to find Shelby and his brother fleeing. Then they are attacked by Indians and Shelby and Tallon must now fight together postponing the inevitable showdown.  - Written by Maurice VanAuken","release_date":"1951-10-09"},{"vote_count":0,"id":321388,"video":false,"vote_average":0,"title":"Jonny Banco","popularity":0.004,"poster_path":null,"original_language":"de","original_title":"Jonny Banco","genre_ids":[35,80],"backdrop_path":null,"adult":false,"overview":"","release_date":"1967-08-10"},{"vote_count":0,"id":265685,"video":false,"vote_average":0,"title":"Jonny rettet Nebrador","popularity":0.003,"poster_path":"\/3kLNfMDV1ElZNDn3Sc8LyZK5P18.jpg","original_language":"de","original_title":"Jonny rettet Nebrador","genre_ids":[],"backdrop_path":null,"adult":false,"overview":"","release_date":"1953-11-24"}]}
